[
  {
    "name": "Punch",
    "type": "basic",
    "stat": "pow",
    "range": 1,
    "guts": 10,
    "force": 9,
    "accuracy": 5,
    "withering": 0,
    "sharpness": 0,
    "timeToHit": 3.3,
    "timeToMiss": 3.5
  },
  {
    "name": "Headbutt",
    "type": "sharp",
    "stat": "pow",
    "range": 1,
    "guts": 15,
    "force": 15,
    "accuracy": 1,
    "withering": 5,
    "sharpness": 23,
    "nature": 20,
    "timeToHit": 3.3,
    "timeToMiss": 3.5
  },
  {
    "name": "Head Assault",
    "type": "sharp",
    "stat": "pow",
    "range": 1,
    "guts": 25,
    "force": 20,
    "accuracy": 2,
    "withering": 10,
    "sharpness": 25,
    "nature": 50,
    "chain": ["Headbutt", 50],
    "timeToHit": 4.8,
    "timeToMiss": 3.5
  },
  {
    "name": "Leaping Kick",
    "type": "basic",
    "stat": "pow",
    "range": 2,
    "guts": 12,
    "force": 12,
    "accuracy": 0,
    "withering": 0,
    "sharpness": 5,
    "timeToHit": 3.8,
    "timeToMiss": 2.5
  },
  {
    "name": "Scratch",
    "type": "hit",
    "stat": "pow",
    "range": 2,
    "guts": 19,
    "force": 15,
    "accuracy": 18,
    "withering": 6,
    "sharpness": 15,
    "timeToHit": 3.3,
    "timeToMiss": 3.8
  },
  {
    "name": "Stab",
    "type": "withering",
    "stat": "pow",
    "range": 2,
    "guts": 19,
    "force": 13,
    "accuracy": -2,
    "withering": 21,
    "sharpness": 10,
    "nature": -20,
    "timeToHit": 4.3,
    "timeToMiss": 3.5
  },
  {
    "name": "Rushing Punch",
    "type": "heavy",
    "stat": "pow",
    "range": 2,
    "guts": 30,
    "force": 35,
    "accuracy": -3,
    "withering": 11,
    "sharpness": 10,
    "timeToHit": 4.3,
    "timeToMiss": 3.3
  },
  {
    "name": "Diving Press",
    "type": "heavy",
    "stat": "pow",
    "range": 3,
    "guts": 19,
    "force": 25,
    "accuracy": -9,
    "withering": 7,
    "sharpness": 10,
    "timeToHit": 5.1,
    "timeToMiss": 3.3
  },
  {
    "name": "HundredBlows",
    "type": "special",
    "stat": "pow",
    "range": 3,
    "guts": 50,
    "force": 39,
    "accuracy": 11,
    "withering": 19,
    "sharpness": 10,
    "timeToHit": 5.8,
    "timeToMiss": 4.5
  },
  {
    "name": "MillionBlows",
    "type": "special",
    "stat": "pow",
    "range": 3,
    "guts": 55,
    "force": 43,
    "accuracy": 10,
    "withering": 21,
    "sharpness": 15,
    "chain": ["HundredBlows", 50],
    "timeToHit": 6.8,
    "timeToMiss": 5.1
  },
  {
    "name": "Twiddling",
    "type": "sharp",
    "stat": "pow",
    "range": 3,
    "guts": 23,
    "force": 22,
    "accuracy": -4,
    "withering": 8,
    "sharpness": 19,
    "timeToHit": 4.8,
    "timeToMiss": 4.8
  },
  {
    "name": "Twiddling-2",
    "type": "sharp",
    "stat": "pow",
    "range": 3,
    "guts": 27,
    "force": 30,
    "accuracy": -7,
    "withering": 8,
    "sharpness": 26,
    "chain": ["Twiddling", 50],
    "timeToHit": 5.5,
    "timeToMiss": 4.5
  },
  {
    "name": "Twiddling-Z",
    "type": "special",
    "stat": "pow",
    "range": 3,
    "guts": 39,
    "force": 37,
    "accuracy": -10,
    "withering": 18,
    "sharpness": 30,
    "chain": ["Twiddling-2", 50],
    "timeToHit": 5.8,
    "timeToMiss": 4.6
  },
  {
    "name": "Miaow",
    "type": "withering",
    "stat": "int",
    "range": 4,
    "guts": 30,
    "force": 2,
    "accuracy": 15,
    "withering": 34,
    "sharpness": 5,
    "timeToHit": 3.1,
    "timeToMiss": 2.3
  },
  {
    "name": "Song of Mew",
    "type": "withering",
    "stat": "int",
    "range": 4,
    "guts": 39,
    "force": 15,
    "accuracy": 6,
    "withering": 39,
    "sharpness": 5,
    "chain": ["Miaow", 50],
    "timeToHit": 4.5,
    "timeToMiss": 2.3
  },
  {
    "name": "Recital",
    "type": "special",
    "stat": "int",
    "range": 4,
    "guts": 40,
    "force": 25,
    "accuracy": -2,
    "withering": 45,
    "sharpness": 10,
    "chain": ["Song of Mew", 50],
    "timeToHit": 4.8,
    "timeToMiss": 2.8
  },
  {
    "name": "Zap",
    "type": "special",
    "stat": "int",
    "range": 4,
    "guts": 40,
    "force": 41,
    "accuracy": -12,
    "withering": 41,
    "sharpness": 10,
    "timeToHit": 4.8,
    "timeToMiss": 2.3
  },
  {
    "name": "Maximal Zap",
    "type": "special",
    "stat": "int",
    "range": 4,
    "guts": 50,
    "force": 59,
    "accuracy": -16,
    "withering": 45,
    "sharpness": 20,
    "chain": ["Zap", 50],
    "timeToHit": 4.8,
    "timeToMiss": 2.8
  }
]
