[
  {
    "name": "Slap",
    "type": "basic",
    "stat": "pow",
    "range": 1,
    "guts": 10,
    "force": 9,
    "accuracy": 2,
    "withering": 5,
    "sharpness": 0,
    "timeToHit": 3.1,
    "timeToMiss": 3.3
  },
  {
    "name": "Thrust",
    "type": "hit",
    "stat": "pow",
    "range": 1,
    "guts": 15,
    "force": 10,
    "accuracy": 6,
    "withering": 9,
    "sharpness": 6,
    "timeToHit": 3.5,
    "timeToMiss": 3.8
  },
  {
    "name": "1-2 Thrust",
    "type": "hit",
    "stat": "pow",
    "range": 1,
    "guts": 27,
    "force": 15,
    "accuracy": 13,
    "withering": 14,
    "sharpness": 7,
    "chain": ["Thrust", 50],
    "timeToHit": 3.8,
    "timeToMiss": 4.1
  },
  {
    "name": "Thrusts",
    "type": "special",
    "stat": "pow",
    "range": 1,
    "guts": 38,
    "force": 38,
    "accuracy": -10,
    "withering": 22,
    "sharpness": 10,
    "chain": ["1-2 Thrust", 50],
    "timeToHit": 6.1,
    "timeToMiss": 5.1
  },
  {
    "name": "Head Butt",
    "type": "basic",
    "stat": "pow",
    "range": 2,
    "guts": 12,
    "force": 12,
    "accuracy": -5,
    "withering": 5,
    "sharpness": 5,
    "timeToHit": 3.5,
    "timeToMiss": 3.5
  },
  {
    "name": "Licking",
    "type": "withering",
    "stat": "int",
    "range": 2,
    "guts": 19,
    "force": 13,
    "accuracy": -11,
    "withering": 24,
    "sharpness": 5,
    "timeToHit": 3.1,
    "timeToMiss": 3.3
  },
  {
    "name": "Press",
    "type": "heavy",
    "stat": "pow",
    "range": 2,
    "guts": 24,
    "force": 24,
    "accuracy": -9,
    "withering": 12,
    "sharpness": 9,
    "timeToHit": 4.5,
    "timeToMiss": 3.5
  },
  {
    "name": "Diving Press",
    "type": "heavy",
    "stat": "pow",
    "range": 2,
    "guts": 34,
    "force": 39,
    "accuracy": -14,
    "withering": 19,
    "sharpness": 10,
    "chain": ["Press", 50],
    "timeToHit": 5.5,
    "timeToMiss": 3.5
  },
  {
    "name": "Giant Press",
    "type": "heavy",
    "stat": "pow",
    "range": 2,
    "guts": 39,
    "force": 49,
    "accuracy": -16,
    "withering": 20,
    "sharpness": 10,
    "chain": ["Diving Press", 50],
    "timeToHit": 5.5,
    "timeToMiss": 3.5
  },
  {
    "name": "Roll Attack",
    "type": "sharp",
    "stat": "pow",
    "range": 3,
    "guts": 27,
    "force": 19,
    "accuracy": -6,
    "withering": 19,
    "sharpness": 19,
    "timeToHit": 4.8,
    "timeToMiss": 3.5
  },
  {
    "name": "Dazzling Roll",
    "type": "sharp",
    "stat": "pow",
    "range": 3,
    "guts": 36,
    "force": 28,
    "accuracy": -9,
    "withering": 20,
    "sharpness": 25,
    "chain": ["Roll Attack", 50],
    "timeToHit": 5.1,
    "timeToMiss": 3.5
  },
  {
    "name": "Petal Swirl",
    "type": "sharp",
    "stat": "int",
    "range": 3,
    "guts": 16,
    "force": 14,
    "accuracy": -10,
    "withering": 13,
    "sharpness": 16,
    "timeToHit": 4.8,
    "timeToMiss": 3.1
  },
  {
    "name": "Petal Vortex",
    "type": "special",
    "stat": "int",
    "range": 3,
    "guts": 45,
    "force": 0,
    "accuracy": -15,
    "withering": 0,
    "sharpness": 0,
    "nature": 50,
    "comments": "Recovery power 40 (A)",
    "chain": ["Petal Swirl", 50],
    "timeToHit": 5.8,
    "timeToMiss": 5.8
  },
  {
    "name": "Petal Storm",
    "type": "special",
    "stat": "int",
    "range": 3,
    "guts": 40,
    "force": 35,
    "accuracy": -15,
    "withering": 0,
    "sharpness": 0,
    "nature": -50,
    "comments": "50% life steal",
    "chain": ["Petal Swirl", 50],
    "timeToHit": 4.8,
    "timeToMiss": 4.8
  },
  {
    "name": "Mocchi Ray",
    "type": "special",
    "stat": "int",
    "range": 4,
    "guts": 35,
    "force": 20,
    "accuracy": 10,
    "withering": 20,
    "sharpness": 10,
    "timeToHit": 2.6,
    "timeToMiss": 2.5
  },
  {
    "name": "Mocchi Beam",
    "type": "special",
    "stat": "int",
    "range": 4,
    "guts": 40,
    "force": 25,
    "accuracy": 3,
    "withering": 25,
    "sharpness": 15,
    "chain": ["Mocchi Ray", 50],
    "timeToHit": 5.2,
    "timeToMiss": 2.5
  },
  {
    "name": "Mocchi Cannon",
    "type": "special",
    "stat": "int",
    "range": 4,
    "guts": 50,
    "force": 45,
    "accuracy": -5,
    "withering": 25,
    "sharpness": 20,
    "nature": 20,
    "chain": ["Mocchi Beam", 50],
    "timeToHit": 5.4,
    "timeToMiss": 3
  },
  {
    "name": "Flame",
    "type": "special",
    "stat": "int",
    "range": 4,
    "guts": 38,
    "force": 44,
    "accuracy": -13,
    "withering": 16,
    "sharpness": 10,
    "timeToHit": 4,
    "timeToMiss": 2.9
  },
  {
    "name": "Roll Assault",
    "type": "heavy",
    "stat": "pow",
    "range": 4,
    "guts": 19,
    "force": 25,
    "accuracy": -12,
    "withering": 7,
    "sharpness": 5,
    "timeToHit": 5.8,
    "timeToMiss": 4.8
  },
  {
    "name": "Petal Roll",
    "type": "heavy",
    "stat": "pow",
    "range": 4,
    "guts": 25,
    "force": 29,
    "accuracy": -13,
    "withering": 15,
    "sharpness": 7,
    "chain": ["Roll Assault", 50],
    "timeToHit": 5.9,
    "timeToMiss": 4.8
  }
]
