[
  {
    "name": "Head Butt",
    "type": "basic",
    "stat": "pow",
    "range": 1,
    "guts": 15,
    "force": 16,
    "accuracy": 3,
    "withering": 5,
    "sharpness": 0,
    "timeToHit": 3.8,
    "timeToMiss": 3.8
  },
  {
    "name": "Leaf Cutter",
    "type": "hit",
    "stat": "int",
    "range": 2,
    "guts": 18,
    "force": 14,
    "accuracy": 15,
    "withering": 5,
    "sharpness": 5,
    "timeToHit": 3.8,
    "timeToMiss": 3.8
  },
  {
    "name": "Leaf Gun",
    "type": "basic",
    "stat": "int",
    "range": 3,
    "guts": 12,
    "force": 13,
    "accuracy": 0,
    "withering": 0,
    "sharpness": 0,
    "timeToHit": 4.3,
    "timeToMiss": 4.5
  },
  {
    "name": "Leaf Gatling",
    "type": "heavy",
    "stat": "int",
    "range": 3,
    "guts": 23,
    "force": 34,
    "accuracy": -14,
    "withering": 8,
    "sharpness": 5,
    "chain": ["Leaf Gun", 50],
    "timeToHit": 5.5,
    "timeToMiss": 4.5
  },
  {
    "name": "Twig Gun",
    "type": "withering",
    "stat": "int",
    "range": 3,
    "guts": 18,
    "force": 10,
    "accuracy": -6,
    "withering": 25,
    "sharpness": 5,
    "timeToHit": 4.8,
    "timeToMiss": 2.8
  },
  {
    "name": "Twig Gatling",
    "type": "withering",
    "stat": "int",
    "range": 3,
    "guts": 30,
    "force": 21,
    "accuracy": -8,
    "withering": 35,
    "sharpness": 5,
    "timeToHit": 4.8,
    "timeToMiss": 2.8
  },
  {
    "name": "Energy Steal",
    "type": "special",
    "stat": "int",
    "range": 4,
    "guts": 50,
    "force": 40,
    "accuracy": -20,
    "withering": 40,
    "sharpness": 0,
    "nature": -50,
    "comments": "50% life and guts steal",
    "timeToHit": 5.5,
    "timeToMiss": 5.8
  },
  {
    "name": "Twister",
    "type": "special",
    "stat": "int",
    "range": 4,
    "guts": 45,
    "force": 44,
    "accuracy": -10,
    "withering": 33,
    "sharpness": 5,
    "timeToHit": 4.8,
    "timeToMiss": 4.1
  },
  {
    "name": "Twisters",
    "type": "special",
    "stat": "int",
    "range": 4,
    "guts": 50,
    "force": 55,
    "accuracy": -13,
    "withering": 44,
    "sharpness": 5,
    "chain": ["Twister", 50],
    "timeToHit": 5.8,
    "timeToMiss": 4.1
  }
]
